Výstup: dokumentace, validace
…
totéž + kategorie, z níž je odvozen klimatag + spec. cíl + projekt; vše mimo PRV: sum_tagged_nonagri_projekty.xlsx / sum_tagged_nonagri_projekty.parquet - velký soubor, export je ve formátu Parquet

celé CAP výdaje s klimatagy a opatřeními determinujícími klimatag: sum_tagged_agri_detail.xlsx / sum_tagged_agri_detail.csv

CSV soubory uzpůsobeny pro Excel (úprava konce řádků) a CEE region (odděleno středníky, desetinná čárka).

Codebook

Projektová úroveň

Zapsáno v data-export/export_202110/codebook_prj.yaml

$tbl
# A tibble: 139,892 × 27
   oblast_intervenc… oblast_interven… climate_share prj_id sc_id sc_nazev op_zkr
   <chr>             <chr>                    <dbl> <chr>  <chr> <chr>    <chr> 
 1 Research and inn… I.0.002                      0 CZ.01… 01.1… Zvýšit … OP PIK
 2 Research and inn… I.0.002                      0 CZ.01… 01.1… Zvýšit … OP PIK
 3 Research and inn… I.0.002                      0 CZ.01… 01.1… Zvýšit … OP PIK
 4 Research and inn… I.0.002                      0 CZ.01… 01.1… Zvýšit … OP PIK
 5 Research and inn… I.0.002                      0 CZ.01… 01.1… Zvýšit … OP PIK
 6 Research and inn… I.0.002                      0 CZ.01… 01.1… Zvýšit … OP PIK
 7 Research and inn… I.0.002                      0 CZ.01… 01.1… Zvýšit … OP PIK
 8 Research and inn… I.0.002                      0 CZ.01… 01.1… Zvýšit … OP PIK
 9 Research and inn… I.0.002                      0 CZ.01… 01.1… Zvýšit … OP PIK
10 Research and inn… I.0.002                      0 CZ.01… 01.1… Zvýšit … OP PIK
# … with 139,882 more rows, and 20 more variables: op_id <chr>,
#   fin_vyuct_czv <dbl>, fin_vyuct_eu <dbl>, fin_vyuct_sr <dbl>,
#   fin_vyuct_sf <dbl>, fin_vyuct_kraj <dbl>, fin_vyuct_obec <dbl>,
#   fin_vyuct_jine_nar_ver <dbl>, fin_vyuct_soukr <dbl>,
#   fin_vyuct_narodni_verejne <dbl>, fin_vyuct_narodni <dbl>,
#   fin_vyuct_verejne <dbl>, n_prj <int>, prj_nazev <chr>, vyzva_id <chr>,
#   vyzva_nazev <chr>, prj_shrnuti <chr>, p_nazev <chr>, p_ic <chr>, …
…
$metadata$columns$p_forma$Popis
[1] "Právní forma příjemce"

$metadata$columns$p_forma$Typ
[1] "Informace o příjemci"

attr(,"class")
[1] "ptblank_informant"

Součty

Zapsáno v data-export/export_202110/codebook_sum.yaml

$tbl
# A tibble: 196 × 21
   oblast_intervence_… oblast_interven… climate_share op_zkr op_id fin_vyuct_czv
   <chr>               <chr>                    <dbl> <chr>  <chr>         <dbl>
 1 Research and innov… I.0.002                    0   OP PIK 01      6552959890.
 2 Productive investm… I.0.003                    0.4 OP PIK 01       462812274.
 3 Productive investm… I.0.004                    0   OP PIK 01      1944195895.
 4 Electricity (stora… II.1.005                   0   OP PIK 01      5722555630.
 5 Renewable energy: … II.1.009                   1   OP PIK 01               0 
 6 Renewable energy: … II.1.010                   1   OP PIK 01               0 
 7 Renewable energy: … II.1.011                   1   OP PIK 01       571811250.
 8 Other renewable en… II.1.012                   1   OP PIK 01         8523347.
 9 Energy efficiency … II.1.013                   1   IROP   06               0 
10 Energy efficiency … II.1.013                   1   OP D   04        35127845.
# … with 186 more rows, and 15 more variables: fin_vyuct_eu <dbl>,
#   fin_vyuct_sr <dbl>, fin_vyuct_sf <dbl>, fin_vyuct_kraj <dbl>,
#   fin_vyuct_obec <dbl>, fin_vyuct_jine_nar_ver <dbl>, fin_vyuct_soukr <dbl>,
#   fin_vyuct_narodni_verejne <dbl>, fin_vyuct_narodni <dbl>,
#   fin_vyuct_verejne <dbl>, n_prj <int>, prv_opatreni_orig <chr>,
#   prv_opatreni_id <chr>, prv_opatreni_typ <chr>, prv_opatreni_nazev <chr>
…
